0  --  21  --  3  --  10  --  0.3333  --  2.1  --  0  --  -0.21  --  -0.0833  --  -8  --  
0.02  --  21.0066  --  3.042  --  9.9984  --  0.3291  --  2.0983  --  -0.16  --  -0.2102  --  -0.0838  --  -7.9936  --  
0.04  --  21.0132  --  3.0839  --  9.9936  --  0.3249  --  2.0966  --  -0.3197  --  -0.2104  --  -0.0842  --  -7.9744  --  
0.06  --  21.0196  --  3.1258  --  9.9856  --  0.3207  --  2.095  --  -0.4788  --  -0.2106  --  -0.0846  --  -7.9425  --  
0.08  --  21.026  --  3.1677  --  9.9745  --  0.3165  --  2.0933  --  -0.6373  --  -0.2107  --  -0.085  --  -7.8978  --  
0.1  --  21.0323  --  3.2096  --  9.9601  --  0.3123  --  2.0916  --  -0.7947  --  -0.2109  --  -0.0854  --  -7.8405  --  
0.12  --  21.0385  --  3.2514  --  9.9427  --  0.3081  --  2.0898  --  -0.9508  --  -0.2111  --  -0.0858  --  -7.7707  --  
0.14  --  21.0446  --  3.2932  --  9.9221  --  0.3038  --  2.0881  --  -1.1054  --  -0.2113  --  -0.0863  --  -7.6884  --  
0.16  --  21.0506  --  3.3349  --  9.8985  --  0.2996  --  2.0864  --  -1.2583  --  -0.2115  --  -0.0867  --  -7.5939  --  
0.18  --  21.0566  --  3.3766  --  9.8718  --  0.2954  --  2.0847  --  -1.4091  --  -0.2116  --  -0.0871  --  -7.4872  --  
0.2  --  21.0625  --  3.4183  --  9.8421  --  0.2912  --  2.0829  --  -1.5577  --  -0.2118  --  -0.0875  --  -7.3685  --  
0.22  --  21.0682  --  3.4599  --  9.8095  --  0.2869  --  2.0812  --  -1.7038  --  -0.212  --  -0.0879  --  -7.238  --  
0.24  --  21.0739  --  3.5016  --  9.774  --  0.2827  --  2.0794  --  -1.8471  --  -0.2122  --  -0.0883  --  -7.096  --  
0.26  --  21.0795  --  3.5431  --  9.7356  --  0.2784  --  2.0776  --  -1.9875  --  -0.2123  --  -0.0887  --  -6.9426  --  
0.28  --  21.0851  --  3.5847  --  9.6945  --  0.2742  --  2.0759  --  -2.1247  --  -0.2125  --  -0.0891  --  -6.778  --  
0.3  --  21.0905  --  3.6262  --  9.6507  --  0.2699  --  2.0741  --  -2.2586  --  -0.2127  --  -0.0895  --  -6.6027  --  
0.32  --  21.0959  --  3.6676  --  9.6042  --  0.2657  --  2.0723  --  -2.3888  --  -0.2129  --  -0.0899  --  -6.4168  --  
0.34  --  21.1011  --  3.709  --  9.5551  --  0.2614  --  2.0705  --  -2.5152  --  -0.213  --  -0.0903  --  -6.2206  --  
0.36  --  21.1063  --  3.7504  --  9.5036  --  0.2571  --  2.0687  --  -2.6375  --  -0.2132  --  -0.0907  --  -6.0144  --  
0.38  --  21.1114  --  3.7918  --  9.4497  --  0.2529  --  2.0668  --  -2.7557  --  -0.2134  --  -0.0911  --  -5.7987  --  
0.4  --  21.1164  --  3.8331  --  9.3934  --  0.2486  --  2.065  --  -2.8694  --  -0.2135  --  -0.0915  --  -5.5737  --  
0.42  --  21.1214  --  3.8744  --  9.3349  --  0.2443  --  2.0632  --  -2.9786  --  -0.2137  --  -0.0919  --  -5.3397  --  
0.44  --  21.1262  --  3.9156  --  9.2743  --  0.2401  --  2.0613  --  -3.083  --  -0.2139  --  -0.0923  --  -5.0972  --  
0.46  --  21.131  --  3.9568  --  9.2116  --  0.2358  --  2.0595  --  -3.1824  --  -0.214  --  -0.0927  --  -4.8466  --  
0.48  --  21.1356  --  3.998  --  9.147  --  0.2315  --  2.0576  --  -3.2768  --  -0.2142  --  -0.0931  --  -4.5882  --  
0.5  --  21.1402  --  4.0392  --  9.0806  --  0.2272  --  2.0558  --  -3.3659  --  -0.2144  --  -0.0935  --  -4.3224  --  
0.52  --  21.1447  --  4.0802  --  9.0124  --  0.2229  --  2.0539  --  -3.4496  --  -0.2145  --  -0.0939  --  -4.0498  --  
0.54  --  21.1491  --  4.1213  --  8.9427  --  0.2186  --  2.052  --  -3.5278  --  -0.2147  --  -0.0943  --  -3.7706  --  
0.56  --  21.1535  --  4.1623  --  8.8714  --  0.2143  --  2.0501  --  -3.6004  --  -0.2148  --  -0.0947  --  -3.4855  --  
0.58  --  21.1577  --  4.2033  --  8.7987  --  0.21  --  2.0482  --  -3.6672  --  -0.215  --  -0.0951  --  -3.1947  --  
0.6  --  21.1619  --  4.2443  --  8.7247  --  0.2057  --  2.0463  --  -3.7282  --  -0.2152  --  -0.0955  --  -2.8989  --  
0.62  --  21.166  --  4.2852  --  8.6496  --  0.2014  --  2.0444  --  -3.7831  --  -0.2153  --  -0.0959  --  -2.5984  --  
0.64  --  21.1699  --  4.326  --  8.5734  --  0.1971  --  2.0425  --  -3.8321  --  -0.2155  --  -0.0963  --  -2.2937  --  
0.66  --  21.1738  --  4.3669  --  8.4964  --  0.1928  --  2.0405  --  -3.8749  --  -0.2156  --  -0.0967  --  -1.9854  --  
0.68  --  21.1776  --  4.4077  --  8.4185  --  0.1885  --  2.0386  --  -3.9115  --  -0.2158  --  -0.0971  --  -1.6739  --  
0.7  --  21.1814  --  4.4484  --  8.3399  --  0.1842  --  2.0367  --  -3.9418  --  -0.216  --  -0.0975  --  -1.3597  --  
0.72  --  21.185  --  4.4891  --  8.2608  --  0.1799  --  2.0347  --  -3.9658  --  -0.2161  --  -0.0978  --  -1.0434  --  
0.74  --  21.1886  --  4.5298  --  8.1813  --  0.1755  --  2.0327  --  -3.9835  --  -0.2163  --  -0.0982  --  -0.7254  --  
0.76  --  21.192  --  4.5704  --  8.1015  --  0.1712  --  2.0308  --  -3.9948  --  -0.2164  --  -0.0986  --  -0.4062  --  
0.78  --  21.1954  --  4.611  --  8.0216  --  0.1669  --  2.0288  --  -3.9998  --  -0.2166  --  -0.099  --  -0.0864  --  
0.8  --  21.1987  --  4.6516  --  7.9416  --  0.1626  --  2.0268  --  -3.9983  --  -0.2167  --  -0.0994  --  0.2336  --  
0.82  --  21.2019  --  4.6921  --  7.8617  --  0.1582  --  2.0248  --  -3.9904  --  -0.2169  --  -0.0998  --  0.5532  --  
0.84  --  21.205  --  4.7326  --  7.782  --  0.1539  --  2.0228  --  -3.9762  --  -0.217  --  -0.1001  --  0.8719  --  
0.86  --  21.2081  --  4.773  --  7.7027  --  0.1495  --  2.0208  --  -3.9556  --  -0.2172  --  -0.1005  --  1.1892  --  
0.88  --  21.211  --  4.8134  --  7.6238  --  0.1452  --  2.0188  --  -3.9286  --  -0.2173  --  -0.1009  --  1.5046  --  
0.9  --  21.2139  --  4.8538  --  7.5456  --  0.1408  --  2.0168  --  -3.8954  --  -0.2175  --  -0.1013  --  1.8176  --  
0.92  --  21.2167  --  4.8941  --  7.4681  --  0.1365  --  2.0148  --  -3.8559  --  -0.2176  --  -0.1016  --  2.1277  --  
0.94  --  21.2193  --  4.9344  --  7.3914  --  0.1321  --  2.0127  --  -3.8103  --  -0.2177  --  -0.102  --  2.4344  --  
0.96  --  21.2219  --  4.9746  --  7.3157  --  0.1278  --  2.0107  --  -3.7586  --  -0.2179  --  -0.1024  --  2.7372  --  
0.98  --  21.2245  --  5.0148  --  7.2411  --  0.1234  --  2.0086  --  -3.7008  --  -0.218  --  -0.1028  --  3.0356  --  
1  --  21.2269  --  5.0549  --  7.1677  --  0.1191  --  2.0066  --  -3.6372  --  -0.2182  --  -0.1031  --  3.3292  --  
1.02  --  21.2292  --  5.095  --  7.0956  --  0.1147  --  2.0045  --  -3.5677  --  -0.2183  --  -0.1035  --  3.6174  --  
1.04  --  21.2315  --  5.1351  --  7.025  --  0.1103  --  2.0024  --  -3.4925  --  -0.2184  --  -0.1039  --  3.8999  --  
1.06  --  21.2336  --  5.1751  --  6.956  --  0.106  --  2.0003  --  -3.4118  --  -0.2186  --  -0.1043  --  4.1761  --  
1.08  --  21.2357  --  5.2151  --  6.8886  --  0.1016  --  1.9982  --  -3.3255  --  -0.2187  --  -0.1046  --  4.4456  --  
1.1  --  21.2377  --  5.2551  --  6.823  --  0.0972  --  1.9962  --  -3.234  --  -0.2189  --  -0.105  --  4.708  --  
1.12  --  21.2396  --  5.295  --  6.7593  --  0.0928  --  1.9941  --  -3.1373  --  -0.219  --  -0.1054  --  4.9629  --  
1.14  --  21.2414  --  5.3348  --  6.6975  --  0.0885  --  1.9919  --  -3.0355  --  -0.2191  --  -0.1057  --  5.2098  --  
1.16  --  21.2431  --  5.3746  --  6.6379  --  0.0841  --  1.9898  --  -2.9289  --  -0.2193  --  -0.1061  --  5.4484  --  
1.18  --  21.2448  --  5.4144  --  6.5804  --  0.0797  --  1.9877  --  -2.8176  --  -0.2194  --  -0.1064  --  5.6783  --  
1.2  --  21.2463  --  5.4542  --  6.5252  --  0.0753  --  1.9856  --  -2.7019  --  -0.2195  --  -0.1068  --  5.8991  --  
1.22  --  21.2478  --  5.4938  --  6.4724  --  0.0709  --  1.9834  --  -2.5817  --  -0.2197  --  -0.1072  --  6.1105  --  
1.24  --  21.2492  --  5.5335  --  6.422  --  0.0665  --  1.9813  --  -2.4575  --  -0.2198  --  -0.1075  --  6.3121  --  
1.26  --  21.2504  --  5.5731  --  6.3741  --  0.0621  --  1.9791  --  -2.3293  --  -0.2199  --  -0.1079  --  6.5036  --  
1.28  --  21.2516  --  5.6127  --  6.3288  --  0.0577  --  1.977  --  -2.1974  --  -0.22  --  -0.1083  --  6.6847  --  
1.3  --  21.2528  --  5.6522  --  6.2862  --  0.0533  --  1.9748  --  -2.062  --  -0.2202  --  -0.1086  --  6.8551  --  
1.32  --  21.2538  --  5.6916  --  6.2464  --  0.0489  --  1.9726  --  -1.9233  --  -0.2203  --  -0.109  --  7.0145  --  
1.34  --  21.2547  --  5.7311  --  6.2093  --  0.0445  --  1.9704  --  -1.7815  --  -0.2204  --  -0.1093  --  7.1628  --  
1.36  --  21.2556  --  5.7705  --  6.1751  --  0.0401  --  1.9682  --  -1.6369  --  -0.2205  --  -0.1097  --  7.2995  --  
1.38  --  21.2563  --  5.8098  --  6.1439  --  0.0357  --  1.966  --  -1.4896  --  -0.2207  --  -0.11  --  7.4246  --  
1.4  --  21.257  --  5.8491  --  6.1156  --  0.0313  --  1.9638  --  -1.34  --  -0.2208  --  -0.1104  --  7.5378  --  
1.42  --  21.2576  --  5.8884  --  6.0903  --  0.0268  --  1.9616  --  -1.1882  --  -0.2209  --  -0.1107  --  7.6389  --  
1.44  --  21.2581  --  5.9276  --  6.068  --  0.0224  --  1.9594  --  -1.0345  --  -0.221  --  -0.1111  --  7.7278  --  
1.46  --  21.2585  --  5.9667  --  6.0489  --  0.018  --  1.9572  --  -0.8791  --  -0.2212  --  -0.1114  --  7.8044  --  
1.48  --  21.2588  --  6.0059  --  6.0329  --  0.0136  --  1.955  --  -0.7224  --  -0.2213  --  -0.1118  --  7.8685  --  
1.5  --  21.259  --  6.0449  --  6.02  --  0.0092  --  1.9527  --  -0.5645  --  -0.2214  --  -0.1121  --  7.9199  --  
1.52  --  21.2591  --  6.084  --  6.0103  --  0.0047  --  1.9505  --  -0.4057  --  -0.2215  --  -0.1125  --  7.9588  --  
1.54  --  21.2592  --  6.123  --  6.0038  --  0.0003  --  1.9482  --  -0.2462  --  -0.2216  --  -0.1128  --  7.9848  --  
1.56  --  21.2592  --  6.1619  --  6.0005  --  -0.0041  --  1.946  --  -0.0864  --  -0.2217  --  -0.1132  --  7.9981  --  
1.58  --  21.259  --  6.2008  --  6.0003  --  -0.0086  --  1.9437  --  0.0736  --  -0.2218  --  -0.1135  --  7.9986  --  
1.6  --  21.2588  --  6.2396  --  6.0034  --  -0.013  --  1.9414  --  0.2335  --  -0.222  --  -0.1138  --  7.9864  --  
1.62  --  21.2585  --  6.2785  --  6.0097  --  -0.0175  --  1.9391  --  0.393  --  -0.2221  --  -0.1142  --  7.9613  --  
1.64  --  21.2581  --  6.3172  --  6.0191  --  -0.0219  --  1.9369  --  0.5519  --  -0.2222  --  -0.1145  --  7.9235  --  
1.66  --  21.2576  --  6.3559  --  6.0317  --  -0.0263  --  1.9346  --  0.7098  --  -0.2223  --  -0.1149  --  7.873  --  
1.68  --  21.2571  --  6.3946  --  6.0475  --  -0.0308  --  1.9323  --  0.8667  --  -0.2224  --  -0.1152  --  7.81  --  
1.7  --  21.2564  --  6.4332  --  6.0664  --  -0.0352  --  1.9299  --  1.0222  --  -0.2225  --  -0.1155  --  7.7344  --  
1.72  --  21.2556  --  6.4718  --  6.0884  --  -0.0397  --  1.9276  --  1.176  --  -0.2226  --  -0.1159  --  7.6464  --  
1.74  --  21.2548  --  6.5103  --  6.1134  --  -0.0441  --  1.9253  --  1.3279  --  -0.2227  --  -0.1162  --  7.5463  --  
1.76  --  21.2539  --  6.5488  --  6.1415  --  -0.0486  --  1.923  --  1.4778  --  -0.2228  --  -0.1165  --  7.434  --  
1.78  --  21.2529  --  6.5872  --  6.1725  --  -0.0531  --  1.9207  --  1.6252  --  -0.2229  --  -0.1169  --  7.3099  --  
1.8  --  21.2518  --  6.6256  --  6.2065  --  -0.0575  --  1.9183  --  1.7701  --  -0.223  --  -0.1172  --  7.1741  --  
1.82  --  21.2506  --  6.664  --  6.2433  --  -0.062  --  1.916  --  1.9121  --  -0.2231  --  -0.1175  --  7.0268  --  
1.84  --  21.2493  --  6.7023  --  6.2829  --  -0.0664  --  1.9136  --  2.0511  --  -0.2232  --  -0.1179  --  6.8682  --  
1.86  --  21.2479  --  6.7405  --  6.3253  --  -0.0709  --  1.9112  --  2.1868  --  -0.2233  --  -0.1182  --  6.6987  --  
1.88  --  21.2464  --  6.7787  --  6.3704  --  -0.0754  --  1.9089  --  2.319  --  -0.2234  --  -0.1185  --  6.5184  --  
1.9  --  21.2449  --  6.8169  --  6.4181  --  -0.0798  --  1.9065  --  2.4474  --  -0.2235  --  -0.1189  --  6.3277  --  
1.92  --  21.2432  --  6.855  --  6.4683  --  -0.0843  --  1.9041  --  2.572  --  -0.2236  --  -0.1192  --  6.1269  --  
1.94  --  21.2415  --  6.893  --  6.5209  --  -0.0888  --  1.9017  --  2.6924  --  -0.2237  --  -0.1195  --  5.9163  --  
1.96  --  21.2397  --  6.931  --  6.5759  --  -0.0933  --  1.8993  --  2.8086  --  -0.2238  --  -0.1198  --  5.6963  --  
1.98  --  21.2378  --  6.969  --  6.6332  --  -0.0977  --  1.8969  --  2.9202  --  -0.2239  --  -0.1201  --  5.4671  --  
2  --  21.2358  --  7.0069  --  6.6927  --  -0.1022  --  1.8945  --  3.0272  --  -0.224  --  -0.1205  --  5.2291  --  
